Q1 (Grader: Saeed) (32/35)
  - No Reduction phase in the code
Q2 (Grader: Saeed) (5/5)

Q3 25 + 5

Q4 2 + 8

Q5-a (Grader: Saeed) (4/4)
Q5-b (Grader: Saeed) (4/4)
Q5-c (Grader: Saeed) (4/4) 
q5-d 4
q5-e 2
